(footprint "SO-16_3.9x9.9mm_P1.27mm"
	(version 20240108)
	(generator "pcbnew")
	(generator_version "8.0")
	(layer "F.Cu")
	(descr "SO, 16 Pin (https://www.nxp.com/docs/en/package-information/SOT109-1.pdf), generated with kicad-footprint-generator ipc_gullwing_generator.py")
	(tags "SO SO")
	(property "Reference" "REF**"
		(at 0 -5.9 0)
		(layer "F.SilkS")
		(uuid "352d2bc6-db82-4a35-9be4-fde4f2bd461a")
		(effects
			(font
				(size 1 1)
				(thickness 0.15)
			)
		)
	)
	(property "Value" "SO-16_3.9x9.9mm_P1.27mm"
		(at 0 5.9 0)
		(layer "F.Fab")
		(uuid "713abb4b-6570-46cd-92d8-82611874382c")
		(effects
			(font
				(size 1 1)
				(thickness 0.15)
			)
		)
	)
	(property "Footprint" ""
		(at 0 0 0)
		(unlocked yes)
		(layer "F.Fab")
		(hide yes)
		(uuid "9a7a29de-10aa-4a14-86c7-f2aa739463d4")
		(effects
			(font
				(size 1.27 1.27)
			)
		)
	)
	(property "Datasheet" ""
		(at 0 0 0)
		(unlocked yes)
		(layer "F.Fab")
		(hide yes)
		(uuid "0432a8bd-65d2-42b0-8b3c-3f273b953704")
		(effects
			(font
				(size 1.27 1.27)
			)
		)
	)
	(property "Description" ""
		(at 0 0 0)
		(unlocked yes)
		(layer "F.Fab")
		(hide yes)
		(uuid "34bb9be3-0ded-4ca1-b254-76ab5e6c2316")
		(effects
			(font
				(size 1.27 1.27)
			)
		)
	)
	(attr smd)
	(fp_line
		(start 0 -5.06)
		(end -1.95 -5.06)
		(stroke
			(width 0.12)
			(type solid)
		)
		(layer "F.SilkS")
		(uuid "1b54dfe0-1fab-4bc5-a719-829f9e77b7ca")
	)
	(fp_line
		(start 0 -5.06)
		(end 1.95 -5.06)
		(stroke
			(width 0.12)
			(type solid)
		)
		(layer "F.SilkS")
		(uuid "f3ce6c90-85c4-48e0-8156-b10cfe758222")
	)
	(fp_line
		(start 0 5.06)
		(end -1.95 5.06)
		(stroke
			(width 0.12)
			(type solid)
		)
		(layer "F.SilkS")
		(uuid "f8579e33-7c63-4478-872b-3bb24b9af734")
	)
	(fp_line
		(start 0 5.06)
		(end 1.95 5.06)
		(stroke
			(width 0.12)
			(type solid)
		)
		(layer "F.SilkS")
		(uuid "bb7c5c10-b0b7-46fb-92ef-81ba4f068aff")
	)
	(fp_poly
		(pts
			(xy -2.7 -5.005) (xy -2.94 -5.335) (xy -2.46 -5.335) (xy -2.7 -5.005)
		)
		(stroke
			(width 0.12)
			(type solid)
		)
		(fill solid)
		(layer "F.SilkS")
		(uuid "3ca3cbc2-eb1c-49ca-b876-e4b2d4cac2c6")
	)
	(fp_line
		(start -3.7 -5.2)
		(end -3.7 5.2)
		(stroke
			(width 0.05)
			(type solid)
		)
		(layer "F.CrtYd")
		(uuid "fefc08bb-e71d-41e7-a85a-dc349152ba9b")
	)
	(fp_line
		(start -3.7 5.2)
		(end 3.7 5.2)
		(stroke
			(width 0.05)
			(type solid)
		)
		(layer "F.CrtYd")
		(uuid "d2473296-3fcd-4e0f-a83f-0faf878cb557")
	)
	(fp_line
		(start 3.7 -5.2)
		(end -3.7 -5.2)
		(stroke
			(width 0.05)
			(type solid)
		)
		(layer "F.CrtYd")
		(uuid "c1f23933-ae97-42bf-a312-072c730e814a")
	)
	(fp_line
		(start 3.7 5.2)
		(end 3.7 -5.2)
		(stroke
			(width 0.05)
			(type solid)
		)
		(layer "F.CrtYd")
		(uuid "dd1c455d-44cb-4e79-83d7-5607cc1df1ca")
	)
	(fp_line
		(start -1.95 -3.975)
		(end -0.975 -4.95)
		(stroke
			(width 0.1)
			(type solid)
		)
		(layer "F.Fab")
		(uuid "3c3ab54f-31e8-4c42-875b-6ce726a04f34")
	)
	(fp_line
		(start -1.95 4.95)
		(end -1.95 -3.975)
		(stroke
			(width 0.1)
			(type solid)
		)
		(layer "F.Fab")
		(uuid "53a50119-d4e3-4750-9d8c-2f0c4838db2b")
	)
	(fp_line
		(start -0.975 -4.95)
		(end 1.95 -4.95)
		(stroke
			(width 0.1)
			(type solid)
		)
		(layer "F.Fab")
		(uuid "d6ebb452-65f3-46bf-b7bb-1b92089ae3b3")
	)
	(fp_line
		(start 1.95 -4.95)
		(end 1.95 4.95)
		(stroke
			(width 0.1)
			(type solid)
		)
		(layer "F.Fab")
		(uuid "5ce042c1-183c-4ce7-aaa9-0ff3b41b0ab0")
	)
	(fp_line
		(start 1.95 4.95)
		(end -1.95 4.95)
		(stroke
			(width 0.1)
			(type solid)
		)
		(layer "F.Fab")
		(uuid "0ce995c4-70d4-4b81-8a5d-306fce876ed2")
	)
	(fp_text user "${REFERENCE}"
		(at 0 0 0)
		(layer "F.Fab")
		(uuid "ec347e5d-c0ef-46ec-9ed1-4fb4eefd9b01")
		(effects
			(font
				(size 0.98 0.98)
				(thickness 0.15)
			)
		)
	)
	(pad "1" smd roundrect
		(at -2.575 -4.445)
		(size 1.75 0.6)
		(layers "F.Cu" "F.Paste" "F.Mask")
		(roundrect_rratio 0.25)
		(uuid "9766f7c2-cba4-4280-b699-73f58458a11a")
	)
	(pad "2" smd roundrect
		(at -2.575 -3.175)
		(size 1.75 0.6)
		(layers "F.Cu" "F.Paste" "F.Mask")
		(roundrect_rratio 0.25)
		(uuid "5fa41617-afce-4693-9898-45f607dd35df")
	)
	(pad "3" smd roundrect
		(at -2.575 -1.905)
		(size 1.75 0.6)
		(layers "F.Cu" "F.Paste" "F.Mask")
		(roundrect_rratio 0.25)
		(uuid "c2b502ea-f2c7-487c-a0a7-da7371b784e1")
	)
	(pad "4" smd roundrect
		(at -2.575 -0.635)
		(size 1.75 0.6)
		(layers "F.Cu" "F.Paste" "F.Mask")
		(roundrect_rratio 0.25)
		(uuid "cf012922-9fe5-44d1-b6af-3f1c90edd16e")
	)
	(pad "5" smd roundrect
		(at -2.575 0.635)
		(size 1.75 0.6)
		(layers "F.Cu" "F.Paste" "F.Mask")
		(roundrect_rratio 0.25)
		(uuid "07a01a82-ab07-4411-84bf-4365d615ac6e")
	)
	(pad "6" smd roundrect
		(at -2.575 1.905)
		(size 1.75 0.6)
		(layers "F.Cu" "F.Paste" "F.Mask")
		(roundrect_rratio 0.25)
		(uuid "8c3f434e-1def-4a2e-8773-e27e869cf456")
	)
	(pad "7" smd roundrect
		(at -2.575 3.175)
		(size 1.75 0.6)
		(layers "F.Cu" "F.Paste" "F.Mask")
		(roundrect_rratio 0.25)
		(uuid "911e3b55-f28e-4f1b-ae95-51d0281ce3f7")
	)
	(pad "8" smd roundrect
		(at -2.575 4.445)
		(size 1.75 0.6)
		(layers "F.Cu" "F.Paste" "F.Mask")
		(roundrect_rratio 0.25)
		(uuid "53450c8c-418e-4789-afc0-97f79be70ffc")
	)
	(pad "9" smd roundrect
		(at 2.575 4.445)
		(size 1.75 0.6)
		(layers "F.Cu" "F.Paste" "F.Mask")
		(roundrect_rratio 0.25)
		(uuid "730a3164-9512-4dfb-be92-801015877e62")
	)
	(pad "10" smd roundrect
		(at 2.575 3.175)
		(size 1.75 0.6)
		(layers "F.Cu" "F.Paste" "F.Mask")
		(roundrect_rratio 0.25)
		(uuid "47bf7f84-d518-4da4-aa39-9e628e645e4e")
	)
	(pad "11" smd roundrect
		(at 2.575 1.905)
		(size 1.75 0.6)
		(layers "F.Cu" "F.Paste" "F.Mask")
		(roundrect_rratio 0.25)
		(uuid "acee7f35-f530-45e5-b9a2-e1bbe139abe3")
	)
	(pad "12" smd roundrect
		(at 2.575 0.635)
		(size 1.75 0.6)
		(layers "F.Cu" "F.Paste" "F.Mask")
		(roundrect_rratio 0.25)
		(uuid "711a6135-2fae-4024-9ee7-d555cb9cb84f")
	)
	(pad "13" smd roundrect
		(at 2.575 -0.635)
		(size 1.75 0.6)
		(layers "F.Cu" "F.Paste" "F.Mask")
		(roundrect_rratio 0.25)
		(uuid "002de083-f2cf-4d5a-ab03-0117c630016c")
	)
	(pad "14" smd roundrect
		(at 2.575 -1.905)
		(size 1.75 0.6)
		(layers "F.Cu" "F.Paste" "F.Mask")
		(roundrect_rratio 0.25)
		(uuid "2ff89101-4bf6-420c-92a0-513771418233")
	)
	(pad "15" smd roundrect
		(at 2.575 -3.175)
		(size 1.75 0.6)
		(layers "F.Cu" "F.Paste" "F.Mask")
		(roundrect_rratio 0.25)
		(uuid "e13f5d08-978d-435b-bd9c-c399b0a52ec3")
	)
	(pad "16" smd roundrect
		(at 2.575 -4.445)
		(size 1.75 0.6)
		(layers "F.Cu" "F.Paste" "F.Mask")
		(roundrect_rratio 0.25)
		(uuid "cadad379-733e-4dc5-b3d5-114b4ec2cef4")
	)
	(model "${KICAD8_3DMODEL_DIR}/Package_SO.3dshapes/SO-16_3.9x9.9mm_P1.27mm.wrl"
		(offset
			(xyz 0 0 0)
		)
		(scale
			(xyz 1 1 1)
		)
		(rotate
			(xyz 0 0 0)
		)
	)
)